[
  {
    "date": "1969-01-16",
    "caption": "Den památky Jana Palacha ",
    "note": "1969 ({age}. výročí) – výročí Palachova upálení na protest proti komunistické vládě",
    "highlight": 2
  },
  {
    "date": "1970-01-27",
    "caption": "Den památky obětí holocaustu a předcházení zločinům proti lidskosti",
    "note": "1945 ({age}. výročí) – osvobození nacistického koncentračního a vyhlazovacího tábora Auschwitz-Birkenau",
    "highlight": 2
  },
  {
    "date": "1911-03-08",
    "caption": "Mezinárodní den žen",
    "note": "slaven od 1911",
    "highlight": 2
  },
  {
    "date": "1944-03-09",
    "caption": "Den památky obětí vyhlazení terezínského rodinného tábora v Osvětimi-Březince",
    "note": "1944 ({age}. výročí)",
    "highlight": 2
  },
  {
    "date": "1999-03-12",
    "caption": "Den přístupu České republiky k Severoatlantické smlouvě (NATO)",
    "note": "1999 ({age}. výročí)",
    "highlight": 2
  },
  {
    "date": "1592-03-28",
    "caption": "Den narození Jana Ámose Komenského",
    "note": "1592 ({age}. výročí)",
    "highlight": 2
  },
  {
    "date": "1348-04-07",
    "caption": "Den vzdělanosti",
    "note": "1348 ({age}. výročí) – založení Univerzity Karlovy",
    "highlight": 2
  },
  {
    "date": "2004-05-01",
    "caption": "Den přistoupení České republiky k Evropské unii",
    "note": "2004 ({age}. výročí)",
    "highlight": 2
  },
  {
    "date": "1945-05-05",
    "caption": "Květnové povstání českého lidu",
    "note": "1945 ({age}. výročí) - povstání proti nacistické okupaci",
    "highlight": 2
  },
  {
    "date": "1994-05-15",
    "caption": "Den rodin",
    "note": "mezinárodní den rodiny slavený od roku 1994",
    "highlight": 2
  },
  {
    "date": "1942-06-10",
    "caption": "Den památky obětí vyhlazení obce Lidice",
    "note": "1942 ({age}. výročí)",
    "highlight": 2
  },
  {
    "date": "1942-06-18",
    "caption": "Den hrdinů druhého odboje",
    "note": "1942 ({age}. výročí) – boj v kostele svatých Cyrila a Metoděje",
    "highlight": 2
  },
  {
    "date": "1950-06-27",
    "caption": "Den památky obětí komunistického režimu",
    "note": "1950 ({age}. výročí) – poprava Milady Horákové",
    "highlight": 2
  },
  {
    "date": "1968-08-21",
    "caption": "Den památky obětí invaze a následné okupace vojsky Varšavské smlouvy",
    "note": "1968 ({age}. výročí)",
    "highlight": 2
  },
  {
    "date": "1941-10-08",
    "caption": "Památný den sokolstva",
    "note": "1941 ({age}. výročí) – rozpuštění Československé obce sokolské výnosem zastupujícího říšského protektora Reinharda Heydricha",
    "highlight": 2
  },
  {
    "date": "1988-10-12",
    "caption": "Den samizdatu",
    "note": "1988 ({age}. výročí) - protest československých vydavatelů samizdatu",
    "highlight": 2
  },
  {
    "date": "1918-11-11",
    "caption": "Den válečných veteránů",
    "note": "1918 ({age}. výročí) – konec první světové války",
    "highlight": 2
  }
]
