[
  {
    "date": "1911-03-08",
    "caption": "Mezinárodní den žen",
    "note": "slaven od 1911",
    "highlight": 2
  },
  {
    "date": "1970-11-19",
    "caption": "Mezinárodní den mužů",
    "highlight": 2
  },
  {
    "date": "1970-11-20",
    "caption": "Mezinárodní den dětí",
    "highlight": 2
  },
  {
    "date": "1970-10-01",
    "caption": "Mezinárodní den seniorů",
    "highlight": 2
  },
  {
    "date": "second sunday of may {year}",
    "caption": "Mezinárodní den matek",
    "highlight": 2
  },
  {
    "date": "third sunday of june {year}",
    "caption": "Mezinárodní den otců",
    "highlight": 2
  },
  {
    "date": "1970-04-22",
    "caption": "Den Země",
    "highlight": 2
  },
  {
    "date": "1970-05-07",
    "caption": "Světový den zdraví",
    "highlight": 2
  },
  {
    "date": "1970-10-10",
    "caption": "Světový den duševního zdraví",
    "highlight": 2
  },
  {
    "date": "1970-11-01",
    "caption": "Počátek Movemberu",
    "highlight": 2
  },
  {
    "date": "1970-02-14",
    "caption": "Svátek zamilovaných",
    "highlight": 2
  }
]
